<svg width="58" height="40" viewBox="0 0 58 40" fill="none" xmlns="http://www.w3.org/2000/svg">
<g filter="url(#filter0_d)">
<path fill-rule="evenodd" clip-rule="evenodd" d="M8 2C5.79086 2 4 3.79086 4 6V30C4 32.2091 5.79086 34 8 34H50C52.2091 34 54 32.2091 54 30V6C54 3.79086 52.2091 2 50 2H8Z" fill="#5EC1EC"/>
<path fill-rule="evenodd" clip-rule="evenodd" d="M19.4518 23.1152H17.3828L16.5604 20.8437H12.7951L12.0176 23.1152H10L13.6689 13.1152H15.6801L19.4518 23.1152ZM15.9499 19.1589L14.652 15.4481L13.3798 19.1589H15.9499ZM20.4349 23.1152V13.1152H23.2814L24.9905 19.9365L26.6804 13.1152H29.5333V23.1152H27.7663V15.2435L25.8965 23.1152H24.0653L22.2019 15.2435V23.1152H20.4349ZM31.4224 23.1152V13.1152H38.4068V14.8069H33.3243V17.0238H38.0534V18.7087H33.3243V21.4304H38.5867V23.1152H31.4224ZM39.2421 23.1152L42.4613 17.897L39.5441 13.1152H41.7673L43.6564 16.3281L45.5069 13.1152H47.7109L44.7809 17.972L48 23.1152H45.7061L43.6179 19.6568L41.5232 23.1152H39.2421Z" fill="white"/>
</g>
<defs>
<filter id="filter0_d" x="0" y="0" width="58" height="40" filterUnits="userSpaceOnUse" color-interpolation-filters="sRGB">
<feFlood flood-opacity="0" result="BackgroundImageFix"/>
<feColorMatrix in="SourceAlpha" type="matrix" values="0 0 0 0 0 0 0 0 0 0 0 0 0 0 0 0 0 0 127 0"/>
<feOffset dy="2"/>
<feGaussianBlur stdDeviation="2"/>
<feColorMatrix type="matrix" values="0 0 0 0 0 0 0 0 0 0 0 0 0 0 0 0 0 0 0.2 0"/>
<feBlend mode="normal" in2="BackgroundImageFix" result="effect1_dropShadow"/>
<feBlend mode="normal" in="SourceGraphic" in2="effect1_dropShadow" result="shape"/>
</filter>
</defs>
</svg>
